{
  "type": "service_account",
  "project_id": "api-5975083653777255704-482287",
  "private_key_id": "29d9b4b7a71128d5945c82aba7a1c71aabcb2db2",
  "private_key": "-----BEGIN PRIVATE KEY-----\nMIIEvAIBADANBgkqhkiG9w0BAQEFAASCBKYwggSiAgEAAoIBAQDT1hqzyrO+zrpu\n4slIGmSGvbg689SUuJt05wgWCAbbjAU7ggtxh3cMDhSFu/1U70CeO2PeMsy7Jjx4\n2R3c1D7YBGyf8MVl4nIe9M/BUyL7Eh6sNQlCakOhdWiKzvvjBjsFVRTEY2vWA4z1\nmZXr1Lk12xrCLA9K7ZLAO6BhbUC1IPwGJiP0kffSh1VDOQe5OTLdn6XsYoXHZjV0\nSISVO70bYhUlvmKDlH9wM3BakBSc9+xpwIrSe1wP60Qjc6zBv4G138AZnj/675rA\nX+lDNAXMVYlLRFN4IzxiNJW3VGXcnkBrwIc1gFBfOVqHlxBIsM70+eJ9LnM5Rpm3\nI7SxpPIHAgMBAAECggEAXpu5SkIF+/pNFlfwCGVNL0ZNIPskHpXCTDggiuJj2arT\n7WtbnAUhvH8PWFkIv+WoyOKCbEro186wZFKnfShHtudm8hmwt5umV0AEB3YPYe2K\nSGPZclGOSe5rVc8yfQab1npUr48tqqPkUQ4agHx9iVmFPmI6JD8tcvBOZSTLqPi1\nwXnhuASx1UERuyGu2/pqOETgu/ph3c0MXFhNPFGjQxv4KLeoj4RDetkfSZImdqv8\nLZJV4BiM/i0ItaWdRBjUkbn4g+clxn4mKzV6RHylObdeqNyNILNXuLJby1hPnjWS\nCps5Zi/RSaKhpU8xmlLvQhkpgZ90tbhnOZK7FrwioQKBgQDq5gE5qQqjRzFqg2yf\nquw8kIk59fY3ZUbJec07u+N1e2WOapYylTdwTm+LhuzXwCVuDQjbOpYSldgGeXPR\n8gIO4yZqYmsVm3zB7O5KEilKoFDCSjxrNhvauxD4OHZ5U+IPPxPhZw4l1gFVXKPu\njpKJxU2uMRF3GIzZvAFjWTmMoQKBgQDm3byWazi8vC9BCvpj54IkbXK0N5LCu9oS\nJ6IJ6xQ+9aZs4Ta4nemC/kR2nx75zmQrRHSE5Px6IW0+6KjViR39IeHOZfQ5vScf\n2gCVtN3z26OntA6jO/fIeV+Vl2zz30GdYvpXUECa/fcZKHDh7UwDQZuQQyGPhxz8\nae7BwfEVpwKBgHrKn2tX7YKrDa8DYr4YqIOEfue4puwQWi+qJ1oJfv8D8XPATiHF\nFQT1S6QhdR/Xhvl/gNixSJAQmqvPw3bFTsQfhA5qwlW6QT5Sr8IyujkTkwPtsKXO\n1ELENTu8sFn+OpcDv02+BIxM0cegtOVYzEuOw2vCpMGgKMkNWaBonQfhAoGAFlAL\n8AXA4AzYDFNBS/KOE3M4iM5uMr/xHZwS/x5nQIaBZTiHD2TDstNcTpKmbcJS0BO3\npzhyZmNgqZnW53xvF430wvv7lLEBXQS21cE7SlxJ/uVaHNCo7Ak/Abg24YMMVmfA\nhjvNYq10+kt8TXmfxRjMLi8uyS5n0MV0O+nAoTUCgYAP0ocD35jkANsNgHeNrQ4x\n+4MBp/Qr8V+2PAWO3w4tB3yuaQCYxTcdGZU0ON0Ho+nhdPCO2tJImsHERKdkEsNr\n9b9l3ODbPr00xBX5z11ZzaT9Ubd1rtwwcfiEGjB+R32CXarChgL8drbywL2BMg87\nuqeNlodn2FIsLHlj386vtw==\n-----END PRIVATE KEY-----\n",
  "client_email": "google-play-publisher@api-5975083653777255704-482287.iam.gserviceaccount.com",
  "client_id": "107637979027053050773",
  "auth_uri": "https://accounts.google.com/o/oauth2/auth",
  "token_uri": "https://oauth2.googleapis.com/token",
  "auth_provider_x509_cert_url": "https://www.googleapis.com/oauth2/v1/certs",
  "client_x509_cert_url": "https://www.googleapis.com/robot/v1/metadata/x509/google-play-publisher%40api-5975083653777255704-482287.iam.gserviceaccount.com"
}
